<?xml version="1.0" encoding="UTF-8" standalone="no"?>
<!-- Created with Inkscape (http://www.inkscape.org/) -->

<svg
   width="1024"
   height="1024"
   viewBox="0 0 270.93333 270.93334"
   version="1.1"
   id="svg1250"
   inkscape:version="1.1.2 (0a00cf5339, 2022-02-04)"
   sodipodi:docname="icon.svg"
   inkscape:export-filename="/home/philipp/Workspace/dev/py/qt/keepasspq/keepasspq.png"
   inkscape:export-xdpi="12"
   inkscape:export-ydpi="12"
   xmlns:inkscape="http://www.inkscape.org/namespaces/inkscape"
   xmlns:sodipodi="http://sodipodi.sourceforge.net/DTD/sodipodi-0.dtd"
   xmlns:xlink="http://www.w3.org/1999/xlink"
   xmlns="http://www.w3.org/2000/svg"
   xmlns:svg="http://www.w3.org/2000/svg">
  <sodipodi:namedview
     id="namedview1252"
     pagecolor="#ffffff"
     bordercolor="#666666"
     borderopacity="1.0"
     inkscape:pageshadow="2"
     inkscape:pageopacity="0.0"
     inkscape:pagecheckerboard="0"
     inkscape:document-units="px"
     showgrid="false"
     units="px"
     width="1024px"
     inkscape:snap-bbox="false"
     inkscape:snap-grids="true"
     inkscape:zoom="0.4069336"
     inkscape:cx="538.17133"
     inkscape:cy="656.1267"
     inkscape:window-width="1920"
     inkscape:window-height="1131"
     inkscape:window-x="0"
     inkscape:window-y="40"
     inkscape:window-maximized="1"
     inkscape:current-layer="layer1">
    <inkscape:grid
       type="xygrid"
       id="grid1333" />
  </sodipodi:namedview>
  <defs
     id="defs1247">
    <linearGradient
       inkscape:collect="always"
       id="linearGradient2429">
      <stop
         style="stop-color:#808080;stop-opacity:1;"
         offset="0"
         id="stop2425" />
      <stop
         style="stop-color:#808080;stop-opacity:0;"
         offset="1"
         id="stop2427" />
    </linearGradient>
    <rect
       x="160"
       y="320"
       width="920.00002"
       height="460.00001"
       id="rect2921" />
    <linearGradient
       inkscape:collect="always"
       xlink:href="#linearGradient2429"
       id="linearGradient2431"
       x1="153.92699"
       y1="57.393818"
       x2="212.05566"
       y2="57.078632"
       gradientUnits="userSpaceOnUse"
       gradientTransform="translate(-26.39783,-27.507773)" />
  </defs>
  <g
     inkscape:label="Ebene 1"
     inkscape:groupmode="layer"
     id="layer1"
     style="opacity:1">
    <rect
       style="fill:#ececec;fill-opacity:1;stroke:none;stroke-width:5.29167;stroke-linecap:butt;stroke-linejoin:bevel;stroke-miterlimit:4;stroke-dasharray:none"
       id="rect86880"
       width="243.41667"
       height="243.41669"
       x="13.758331"
       y="15.875"
       ry="10.583334" />
    <path
       style="opacity:0.26457089;fill:url(#linearGradient2431);fill-opacity:1;fill-rule:evenodd;stroke:none;stroke-width:0.264583px;stroke-linecap:butt;stroke-linejoin:miter;stroke-opacity:1"
       d="m 45.508335,117.19854 85.724995,85.72499 82.02084,-87.31248 -85.72501,-85.725004 z"
       id="path2307"
       sodipodi:nodetypes="ccccc" />
    <rect
       style="fill:#ffffff;stroke:none;stroke-width:5.29167;stroke-linecap:butt;stroke-linejoin:bevel;stroke-miterlimit:4;stroke-dasharray:none"
       id="rect87201"
       width="95.25"
       height="158.75"
       x="29.633331"
       y="42.333332" />
    <rect
       style="fill:#ffffff;stroke:none;stroke-width:5.46521;stroke-linecap:butt;stroke-linejoin:bevel;stroke-miterlimit:4;stroke-dasharray:none"
       id="rect87201-7"
       width="169.33334"
       height="95.25"
       x="61.383331"
       y="148.16667" />
    <path
       id="rect26143"
       style="fill:#3f3e3e;stroke:none;stroke-width:0.0649999;stroke-linecap:round;stroke-linejoin:bevel;fill-opacity:1"
       d="m 34.925003,26.458338 c -5.863167,0 -10.583333,4.720166 -10.583333,10.583333 V 216.95834 c 0,5.86316 4.720166,10.58333 10.583333,10.58333 H 61.383336 V 201.08334 H 29.633337 V 42.333337 H 124.88334 V 142.87501 h 5.29167 V 37.041671 c 0,-5.863167 -4.72017,-10.583333 -10.58334,-10.583333 z"
       sodipodi:nodetypes="sssscccccccsss" />
    <path
       id="rect26143-7"
       style="fill:#3f3e3e;stroke:none;stroke-width:0.0697045;stroke-linecap:round;stroke-linejoin:bevel;fill-opacity:1"
       d="m 56.09167,142.87501 c -5.863167,0 -10.583334,4.72017 -10.583334,10.58333 v 84.66667 c 0,5.86316 4.720167,10.58333 10.583334,10.58333 h 179.91667 c 5.86316,0 10.58333,-4.72017 10.58333,-10.58333 v -84.66667 c 0,-5.86316 -4.72017,-10.58333 -10.58333,-10.58333 z m 5.291666,5.29167 H 230.71667 v 95.24999 H 61.383336 Z"
       sodipodi:nodetypes="sssssssssccccc" />
    <path
       id="path87510"
       style="fill:#4aa64a;fill-opacity:1;stroke:none;stroke-width:16.7331;stroke-linecap:butt;stroke-linejoin:bevel;stroke-miterlimit:4;stroke-dasharray:none"
       d="M 352 580 L 352 650 L 752 650 L 752 580 L 352 580 z M 352 670 L 352 730 L 502 730 L 502 670 L 352 670 z M 602 670 L 602 730 L 752 730 L 752 670 L 602 670 z M 352 750 L 352 810 L 502 810 L 502 750 L 352 750 z M 602 750 L 602 810 L 752 810 L 752 750 L 602 750 z M 352 830 L 352 900 L 752 900 L 752 830 L 352 830 z "
       transform="scale(0.26458333)" />
    <path
       id="path87677"
       style="fill:#4aa64a;fill-opacity:1;stroke-width:11.3137;stroke-linejoin:bevel"
       d="M 552 200 C 538.38444 200 525.00864 201.6685 512 204.6582 L 512 286.95508 C 524.52328 282.5181 537.95501 280 552 280 C 618.27417 280 677.01604 342.22562 672 400 C 671.18196 409.4221 670.2361 416.95883 669.2168 423.26172 C 674.77232 427.55587 680.91997 430.94757 687.66602 433.42773 C 699.64515 437.76803 715.09788 439.9375 734.02148 439.9375 L 746 439.9375 L 746 441.49414 C 749.36457 430.56027 751.63357 417.28019 752 400 C 754.34172 289.56787 662.45696 199.99999 552 200 z M 452 229.32812 C 389.97308 267.20008 347.53737 335.88574 352 400 C 355.99279 457.36404 364.83541 494.04307 374.1875 520 L 432 520 L 432 400 C 432 375.47524 439.37249 352.67921 452 333.67773 L 452 229.32812 z M 614 407 L 613.79102 431.52148 C 626.63823 462.077 642.95835 484.47286 662.75 498.70898 C 682.71524 512.9451 707.54101 520.0625 737.22852 520.0625 L 752 520.0625 L 752 462 L 732.02148 462 C 713.09788 462 697.64519 459.83053 685.66602 455.49023 C 673.86047 451.14998 663.87849 444.03059 655.71875 434.13477 L 639 407 L 614 407 z "
       transform="scale(0.26458333)" />
    <rect
       style="fill:#000000;fill-opacity:1;stroke-width:5.29167;stroke-linejoin:bevel"
       id="rect2170"
       width="31.75"
       height="5.2916665"
       x="61.383339"
       y="31.75"
       ry="2.6458333" />
  </g>
</svg>
